{
    "new_entries": {
        "has_next": false,
        "page": 1,
        "results": []
    },
    "last_updated_data": "2022-08-14T18:42:03Z",
    "league": {
        "id": 172,
        "name": "Netherlands",
        "created": "2022-07-05T09:51:59.622281Z",
        "closed": false,
        "max_entries": null,
        "league_type": "s",
        "scoring": "c",
        "admin_entry": null,
        "start_event": 1,
        "code_privacy": "p",
        "has_cup": true,
        "cup_league": null,
        "rank": null,
        "lgCount": 30398
    },
    "standings": {
        "has_next": true,
        "page": 1,
        "results": [
            {
                "id": 9330903,
                "event_total": 98,
                "player_name": "Tyler Smith",
                "rank": 1,
                "last_rank": 2152,
                "rank_sort": 1,
                "total": 174,
                "entry": 1739170,
                "entry_name": "Zanarkand"
            },
            {
                "id": 9032918,
                "event_total": 77,
                "player_name": "Finn Parlevliet",
                "rank": 2,
                "last_rank": 43,
                "rank_sort": 2,
                "total": 170,
                "entry": 1690108,
                "entry_name": "salah/haaland carry"
            },
            {
                "id": 31224960,
                "event_total": 96,
                "player_name": "Floris Zijdewind",
                "rank": 3,
                "last_rank": 2884,
                "rank_sort": 3,
                "total": 170,
                "entry": 4862623,
                "entry_name": "Florinthians"
            },
            {
                "id": 25282106,
                "event_total": 89,
                "player_name": "Roel Delissen",
                "rank": 4,
                "last_rank": 1196,
                "rank_sort": 4,
                "total": 168,
                "entry": 4143126,
                "entry_name": "12 jarig sletje"
            },
            {
                "id": 2918589,
                "event_total": 80,
                "player_name": "Peter Wilman",
                "rank": 5,
                "last_rank": 182,
                "rank_sort": 5,
                "total": 167,
                "entry": 568189,
                "entry_name": "HaalandOfHope&Glory"
            },
            {
                "id": 5508598,
                "event_total": 101,
                "player_name": "Jarco Van De Griend",
                "rank": 5,
                "last_rank": 8471,
                "rank_sort": 6,
                "total": 167,
                "entry": 1048963,
                "entry_name": "Que Luis Sinisterra"
            },
            {
                "id": 8791145,
                "event_total": 62,
                "player_name": "Tom Scholten",
                "rank": 7,
                "last_rank": 1,
                "rank_sort": 7,
                "total": 167,
                "entry": 1646714,
                "entry_name": "Miedema FC"
            },
            {
                "id": 5290134,
                "event_total": 80,
                "player_name": "rik van der sloot",
                "rank": 8,
                "last_rank": 236,
                "rank_sort": 8,
                "total": 166,
                "entry": 1009181,
                "entry_name": "RikGunners"
            },
            {
                "id": 51589093,
                "event_total": 81,
                "player_name": "James Hyslop",
                "rank": 9,
                "last_rank": 310,
                "rank_sort": 9,
                "total": 166,
                "entry": 7134138,
                "entry_name": "Slam Dunk-in-Donuts"
            },
            {
                "id": 24816264,
                "event_total": 89,
                "player_name": "Nordin Lemmens",
                "rank": 9,
                "last_rank": 1845,
                "rank_sort": 10,
                "total": 166,
                "entry": 4076873,
                "entry_name": "Easydub"
            },
            {
                "id": 3878915,
                "event_total": 69,
                "player_name": "Jacques Corten",
                "rank": 11,
                "last_rank": 16,
                "rank_sort": 11,
                "total": 165,
                "entry": 747083,
                "entry_name": "Fat Boys FC"
            },
            {
                "id": 42575808,
                "event_total": 73,
                "player_name": "Arnout Stip",
                "rank": 11,
                "last_rank": 56,
                "rank_sort": 12,
                "total": 165,
                "entry": 6043284,
                "entry_name": "Wuus FC"
            },
            {
                "id": 11295470,
                "event_total": 85,
                "player_name": "Mark Visser",
                "rank": 13,
                "last_rank": 943,
                "rank_sort": 13,
                "total": 165,
                "entry": 2071696,
                "entry_name": "Revenge XI"
            },
            {
                "id": 8115206,
                "event_total": 73,
                "player_name": "Morris de Graaff",
                "rank": 14,
                "last_rank": 66,
                "rank_sort": 14,
                "total": 164,
                "entry": 1527161,
                "entry_name": "FC Bal op het dak"
            },
            {
                "id": 11301035,
                "event_total": 81,
                "player_name": "Daan Hermans",
                "rank": 14,
                "last_rank": 542,
                "rank_sort": 15,
                "total": 164,
                "entry": 2072582,
                "entry_name": "DAANFC"
            },
            {
                "id": 21152347,
                "event_total": 65,
                "player_name": "arjan krabbe",
                "rank": 16,
                "last_rank": 10,
                "rank_sort": 16,
                "total": 163,
                "entry": 3545683,
                "entry_name": "krabbeboys"
            },
            {
                "id": 43661061,
                "event_total": 70,
                "player_name": "Max \u200ede Witte",
                "rank": 16,
                "last_rank": 43,
                "rank_sort": 17,
                "total": 163,
                "entry": 6172480,
                "entry_name": "FPL"
            },
            {
                "id": 1366230,
                "event_total": 91,
                "player_name": "Pieter Van maarschalkerwaard",
                "rank": 18,
                "last_rank": 4201,
                "rank_sort": 18,
                "total": 163,
                "entry": 267225,
                "entry_name": "Saka goat"
            },
            {
                "id": 448200,
                "event_total": 77,
                "player_name": "Joris Herrings",
                "rank": 19,
                "last_rank": 310,
                "rank_sort": 19,
                "total": 162,
                "entry": 84611,
                "entry_name": "James to PSV"
            },
            {
                "id": 35074171,
                "event_total": 76,
                "player_name": "Olivier Bleker",
                "rank": 19,
                "last_rank": 236,
                "rank_sort": 20,
                "total": 162,
                "entry": 5322853,
                "entry_name": "Wealdstone Raiders"
            },
            {
                "id": 24921605,
                "event_total": 71,
                "player_name": "Thomas Bouwens",
                "rank": 19,
                "last_rank": 66,
                "rank_sort": 21,
                "total": 162,
                "entry": 4091558,
                "entry_name": "puyol pants down"
            },
            {
                "id": 23146205,
                "event_total": 78,
                "player_name": "Patrick reekie",
                "rank": 19,
                "last_rank": 433,
                "rank_sort": 22,
                "total": 162,
                "entry": 3839933,
                "entry_name": "Man Citties"
            },
            {
                "id": 22342093,
                "event_total": 76,
                "player_name": "Nathan Willard",
                "rank": 23,
                "last_rank": 236,
                "rank_sort": 23,
                "total": 162,
                "entry": 3721485,
                "entry_name": "fc kampioen"
            },
            {
                "id": 365703,
                "event_total": 89,
                "player_name": "Bryant Hoban",
                "rank": 23,
                "last_rank": 3491,
                "rank_sort": 24,
                "total": 162,
                "entry": 70366,
                "entry_name": "Jurgen's Klompen"
            },
            {
                "id": 32014329,
                "event_total": 95,
                "player_name": "Quinten ten Brinke",
                "rank": 23,
                "last_rank": 7619,
                "rank_sort": 25,
                "total": 162,
                "entry": 4966832,
                "entry_name": "Quardiola FC"
            },
            {
                "id": 1437860,
                "event_total": 85,
                "player_name": "Silvan Paans",
                "rank": 26,
                "last_rank": 2152,
                "rank_sort": 26,
                "total": 161,
                "entry": 281583,
                "entry_name": "FC Gerrit"
            },
            {
                "id": 55094754,
                "event_total": 91,
                "player_name": "Kyle Sahertian",
                "rank": 27,
                "last_rank": 5431,
                "rank_sort": 27,
                "total": 161,
                "entry": 7548161,
                "entry_name": "Gretige Boys"
            },
            {
                "id": 7994759,
                "event_total": 84,
                "player_name": "Lars Eberhardt",
                "rank": 28,
                "last_rank": 768,
                "rank_sort": 28,
                "total": 161,
                "entry": 1504663,
                "entry_name": "Ebertjes team"
            },
            {
                "id": 48402890,
                "event_total": 77,
                "player_name": "Lucas Komen",
                "rank": 29,
                "last_rank": 542,
                "rank_sort": 29,
                "total": 160,
                "entry": 6762724,
                "entry_name": "FC Hollandia"
            },
            {
                "id": 16584373,
                "event_total": 71,
                "player_name": "Thijs Michel",
                "rank": 29,
                "last_rank": 115,
                "rank_sort": 30,
                "total": 160,
                "entry": 2858912,
                "entry_name": "Allez les Geits"
            },
            {
                "id": 23273526,
                "event_total": 71,
                "player_name": "Robert Haitink",
                "rank": 29,
                "last_rank": 115,
                "rank_sort": 31,
                "total": 160,
                "entry": 3859754,
                "entry_name": "FC Robianski"
            },
            {
                "id": 9335147,
                "event_total": 80,
                "player_name": "Dries de klein",
                "rank": 29,
                "last_rank": 943,
                "rank_sort": 32,
                "total": 160,
                "entry": 1739903,
                "entry_name": "ik ga winne van Toon"
            },
            {
                "id": 4898969,
                "event_total": 71,
                "player_name": "Mo Ramole",
                "rank": 29,
                "last_rank": 115,
                "rank_sort": 33,
                "total": 160,
                "entry": 937445,
                "entry_name": "Football not Saka"
            },
            {
                "id": 9387192,
                "event_total": 102,
                "player_name": "Felix Steffens",
                "rank": 29,
                "last_rank": 15218,
                "rank_sort": 34,
                "total": 160,
                "entry": 1748691,
                "entry_name": "Sniffing White"
            },
            {
                "id": 52450640,
                "event_total": 91,
                "player_name": "Ricardo Mast",
                "rank": 29,
                "last_rank": 6031,
                "rank_sort": 35,
                "total": 160,
                "entry": 7235709,
                "entry_name": "RicMCFC11"
            },
            {
                "id": 7997017,
                "event_total": 95,
                "player_name": "Ivar Blijsie",
                "rank": 29,
                "last_rank": 9242,
                "rank_sort": 36,
                "total": 160,
                "entry": 1505103,
                "entry_name": "No Pukki No Party"
            },
            {
                "id": 9725391,
                "event_total": 81,
                "player_name": "Kevin asdasd",
                "rank": 37,
                "last_rank": 1196,
                "rank_sort": 37,
                "total": 160,
                "entry": 1806762,
                "entry_name": "FC hhhhhhhh"
            },
            {
                "id": 39947640,
                "event_total": 71,
                "player_name": "Mario Silva",
                "rank": 37,
                "last_rank": 115,
                "rank_sort": 38,
                "total": 160,
                "entry": 5771677,
                "entry_name": "stars"
            },
            {
                "id": 55202591,
                "event_total": 89,
                "player_name": "Koen Jansen",
                "rank": 39,
                "last_rank": 5431,
                "rank_sort": 39,
                "total": 159,
                "entry": 7561489,
                "entry_name": "RPC12"
            },
            {
                "id": 21833919,
                "event_total": 94,
                "player_name": "Mark Spence",
                "rank": 39,
                "last_rank": 9242,
                "rank_sort": 40,
                "total": 159,
                "entry": 3644457,
                "entry_name": "TwoToes"
            },
            {
                "id": 34358054,
                "event_total": 85,
                "player_name": "Jort Beugelaar",
                "rank": 39,
                "last_rank": 2884,
                "rank_sort": 41,
                "total": 159,
                "entry": 5260511,
                "entry_name": "Pending Moderation"
            },
            {
                "id": 34024035,
                "event_total": 80,
                "player_name": "Pieter van den Akker",
                "rank": 39,
                "last_rank": 1196,
                "rank_sort": 42,
                "total": 159,
                "entry": 5223109,
                "entry_name": "Ball on the Roof FC\u02da"
            },
            {
                "id": 54250193,
                "event_total": 91,
                "player_name": "Diego Meerveld",
                "rank": 39,
                "last_rank": 6762,
                "rank_sort": 43,
                "total": 159,
                "entry": 7447020,
                "entry_name": "Diego"
            },
            {
                "id": 4693988,
                "event_total": 88,
                "player_name": "Bart van Gent",
                "rank": 39,
                "last_rank": 4882,
                "rank_sort": 44,
                "total": 159,
                "entry": 898465,
                "entry_name": "ADO Ten Hag"
            },
            {
                "id": 15742863,
                "event_total": 87,
                "player_name": "Ivan Deckers",
                "rank": 45,
                "last_rank": 4201,
                "rank_sort": 45,
                "total": 159,
                "entry": 2728424,
                "entry_name": "Bossche Bollen F.C."
            },
            {
                "id": 2954579,
                "event_total": 69,
                "player_name": "Marnix Otten",
                "rank": 45,
                "last_rank": 83,
                "rank_sort": 46,
                "total": 159,
                "entry": 575063,
                "entry_name": "El Otto"
            },
            {
                "id": 38626433,
                "event_total": 87,
                "player_name": "Juul Propsr",
                "rank": 45,
                "last_rank": 4201,
                "rank_sort": 47,
                "total": 159,
                "entry": 5638484,
                "entry_name": "Propst"
            },
            {
                "id": 55051542,
                "event_total": 78,
                "player_name": "Floris Langenbach",
                "rank": 45,
                "last_rank": 768,
                "rank_sort": 48,
                "total": 159,
                "entry": 7542841,
                "entry_name": "Floppie_14"
            },
            {
                "id": 4382532,
                "event_total": 87,
                "player_name": "Gianluca De Sido",
                "rank": 45,
                "last_rank": 4201,
                "rank_sort": 49,
                "total": 159,
                "entry": 840884,
                "entry_name": "Boys in Blue"
            },
            {
                "id": 56673598,
                "event_total": 87,
                "player_name": "Max Louwers",
                "rank": 45,
                "last_rank": 4201,
                "rank_sort": 50,
                "total": 159,
                "entry": 7737253,
                "entry_name": "better call saul"
            }
        ]
    }
}