{
    "new_entries": {
        "has_next": false,
        "page": 1,
        "results": []
    },
    "last_updated_data": "2022-04-10T19:06:20Z",
    "league": {
        "id": 11,
        "name": "Liverpool",
        "created": "2021-06-22T10:37:33.072878Z",
        "closed": false,
        "max_entries": null,
        "league_type": "s",
        "scoring": "c",
        "admin_entry": null,
        "start_event": 1,
        "code_privacy": "p",
        "has_cup": true,
        "cup_league": 2400372,
        "rank": null,
        "lgCount": 1745800
    },
    "standings": {
        "has_next": true,
        "page": 1,
        "results": [
            {
                "id": 5790135,
                "event_total": 90,
                "player_name": "Christopher Post",
                "rank": 1,
                "last_rank": 3,
                "rank_sort": 1,
                "total": 2349,
                "entry": 1080063,
                "entry_name": "Hotel? Thiago"
            },
            {
                "id": 30404198,
                "event_total": 97,
                "player_name": "Jeffrey Kingington",
                "rank": 2,
                "last_rank": 9,
                "rank_sort": 2,
                "total": 2338,
                "entry": 4537756,
                "entry_name": "JPD"
            },
            {
                "id": 17249816,
                "event_total": 65,
                "player_name": "Anders Dugstad",
                "rank": 3,
                "last_rank": 1,
                "rank_sort": 3,
                "total": 2334,
                "entry": 2903808,
                "entry_name": "Oles Brummser"
            },
            {
                "id": 402594,
                "event_total": 62,
                "player_name": "Joacim Lengroth",
                "rank": 4,
                "last_rank": 2,
                "rank_sort": 4,
                "total": 2330,
                "entry": 77967,
                "entry_name": "Artisterna"
            },
            {
                "id": 3152761,
                "event_total": 88,
                "player_name": "Steven Eales",
                "rank": 5,
                "last_rank": 8,
                "rank_sort": 5,
                "total": 2330,
                "entry": 595223,
                "entry_name": "Django\u2019s Riff"
            },
            {
                "id": 1096388,
                "event_total": 86,
                "player_name": "Bino Baby",
                "rank": 6,
                "last_rank": 6,
                "rank_sort": 6,
                "total": 2329,
                "entry": 207377,
                "entry_name": "Tai Lung"
            },
            {
                "id": 425175,
                "event_total": 90,
                "player_name": "Niall O'Connor",
                "rank": 7,
                "last_rank": 14,
                "rank_sort": 7,
                "total": 2317,
                "entry": 81877,
                "entry_name": "Leatherygents"
            },
            {
                "id": 4675622,
                "event_total": 57,
                "player_name": "Hendrik Mattsson",
                "rank": 8,
                "last_rank": 4,
                "rank_sort": 8,
                "total": 2314,
                "entry": 877419,
                "entry_name": "Lanista Primus"
            },
            {
                "id": 1579484,
                "event_total": 79,
                "player_name": "Troy Hope",
                "rank": 9,
                "last_rank": 11,
                "rank_sort": 9,
                "total": 2310,
                "entry": 298337,
                "entry_name": "Lucky Prophet"
            },
            {
                "id": 23681364,
                "event_total": 81,
                "player_name": "Ahmed El Araby",
                "rank": 10,
                "last_rank": 13,
                "rank_sort": 10,
                "total": 2309,
                "entry": 3652721,
                "entry_name": "Boka Dream Team"
            },
            {
                "id": 8379518,
                "event_total": 82,
                "player_name": "Dane Batinic",
                "rank": 11,
                "last_rank": 22,
                "rank_sort": 11,
                "total": 2302,
                "entry": 1522733,
                "entry_name": "Divan Reds"
            },
            {
                "id": 168114,
                "event_total": 81,
                "player_name": "Ahmed Fakhry",
                "rank": 12,
                "last_rank": 21,
                "rank_sort": 12,
                "total": 2301,
                "entry": 33035,
                "entry_name": "\u0631\u0648\u062d\u0648\u0627 \u0646\u0627\u0645\u0648\u0627 \u0628\u062a\u062d\u0644\u0645\u0648\u0627"
            },
            {
                "id": 192383,
                "event_total": 56,
                "player_name": "Cristian-Anton Fi\u021b\u0103",
                "rank": 12,
                "last_rank": 7,
                "rank_sort": 13,
                "total": 2301,
                "entry": 37470,
                "entry_name": "Taurii Asasini"
            },
            {
                "id": 1300304,
                "event_total": 62,
                "player_name": "Joakim Winter",
                "rank": 14,
                "last_rank": 10,
                "rank_sort": 14,
                "total": 2295,
                "entry": 245112,
                "entry_name": "Silverfang FC"
            },
            {
                "id": 324112,
                "event_total": 82,
                "player_name": "Christos Kompos",
                "rank": 15,
                "last_rank": 31,
                "rank_sort": 15,
                "total": 2295,
                "entry": 63149,
                "entry_name": "Kompos FC"
            },
            {
                "id": 5494699,
                "event_total": 80,
                "player_name": "Andres B\u00e4ckblom",
                "rank": 16,
                "last_rank": 30,
                "rank_sort": 16,
                "total": 2294,
                "entry": 1028842,
                "entry_name": "FC PitStone"
            },
            {
                "id": 230525,
                "event_total": 46,
                "player_name": "Ahmed Ayub",
                "rank": 17,
                "last_rank": 5,
                "rank_sort": 17,
                "total": 2294,
                "entry": 44897,
                "entry_name": "Gemz"
            },
            {
                "id": 25888118,
                "event_total": 69,
                "player_name": "Niall Crosbie",
                "rank": 18,
                "last_rank": 16,
                "rank_sort": 18,
                "total": 2293,
                "entry": 3946131,
                "entry_name": "FC Shorts"
            },
            {
                "id": 510123,
                "event_total": 86,
                "player_name": "Derek To",
                "rank": 19,
                "last_rank": 37,
                "rank_sort": 19,
                "total": 2292,
                "entry": 97985,
                "entry_name": "Soccertricks"
            },
            {
                "id": 590903,
                "event_total": 65,
                "player_name": "Chris Turner",
                "rank": 20,
                "last_rank": 18,
                "rank_sort": 20,
                "total": 2288,
                "entry": 113314,
                "entry_name": "The Brothers Grimsby"
            },
            {
                "id": 37252,
                "event_total": 56,
                "player_name": "Eslam Taha",
                "rank": 21,
                "last_rank": 12,
                "rank_sort": 21,
                "total": 2286,
                "entry": 7841,
                "entry_name": "\u0623\u062d\u0641\u0627\u062f \u062a\u0627\u062c \u0627\u0644\u062f\u064a\u0646"
            },
            {
                "id": 1331567,
                "event_total": 63,
                "player_name": "Amaar Mohammed",
                "rank": 22,
                "last_rank": 19,
                "rank_sort": 22,
                "total": 2286,
                "entry": 251105,
                "entry_name": "Klopps and Robbos"
            },
            {
                "id": 1829479,
                "event_total": 59,
                "player_name": "Grant Semple",
                "rank": 23,
                "last_rank": 15,
                "rank_sort": 23,
                "total": 2283,
                "entry": 344405,
                "entry_name": "Bentekeet Up Dias FC"
            },
            {
                "id": 847990,
                "event_total": 93,
                "player_name": "Roy Lee",
                "rank": 24,
                "last_rank": 76,
                "rank_sort": 24,
                "total": 2282,
                "entry": 162869,
                "entry_name": "Gamcholia"
            },
            {
                "id": 13348457,
                "event_total": 64,
                "player_name": "Andy Abrahamsen",
                "rank": 25,
                "last_rank": 25,
                "rank_sort": 25,
                "total": 2279,
                "entry": 2328516,
                "entry_name": "AAFC"
            },
            {
                "id": 35003997,
                "event_total": 64,
                "player_name": "Ege Eryilmaz",
                "rank": 26,
                "last_rank": 27,
                "rank_sort": 26,
                "total": 2279,
                "entry": 5118938,
                "entry_name": "ka-fa1500"
            },
            {
                "id": 9323204,
                "event_total": 91,
                "player_name": "Brett Morinaka",
                "rank": 27,
                "last_rank": 83,
                "rank_sort": 27,
                "total": 2279,
                "entry": 1686771,
                "entry_name": "B"
            },
            {
                "id": 1319503,
                "event_total": 63,
                "player_name": "Aleksander k\u00e5sene",
                "rank": 28,
                "last_rank": 23,
                "rank_sort": 28,
                "total": 2279,
                "entry": 248779,
                "entry_name": "Balotelli-Tubbies"
            },
            {
                "id": 8646910,
                "event_total": 55,
                "player_name": "Ulrik Gjersoe",
                "rank": 29,
                "last_rank": 17,
                "rank_sort": 29,
                "total": 2278,
                "entry": 1568849,
                "entry_name": "F.C Strikken"
            },
            {
                "id": 4348727,
                "event_total": 93,
                "player_name": "Matt P",
                "rank": 30,
                "last_rank": 88,
                "rank_sort": 30,
                "total": 2278,
                "entry": 817007,
                "entry_name": "Top Blokes"
            },
            {
                "id": 391885,
                "event_total": 71,
                "player_name": "Matthew Mann",
                "rank": 31,
                "last_rank": 40,
                "rank_sort": 31,
                "total": 2276,
                "entry": 76074,
                "entry_name": "NabyLAD"
            },
            {
                "id": 860827,
                "event_total": 72,
                "player_name": "Ian Quinn",
                "rank": 32,
                "last_rank": 43,
                "rank_sort": 32,
                "total": 2276,
                "entry": 165401,
                "entry_name": "Quinner\u2019s Winners"
            },
            {
                "id": 33276045,
                "event_total": 86,
                "player_name": "B\u00e5rd Backer-Owe",
                "rank": 33,
                "last_rank": 69,
                "rank_sort": 33,
                "total": 2276,
                "entry": 4906145,
                "entry_name": "Willian Nygaard"
            },
            {
                "id": 11829199,
                "event_total": 79,
                "player_name": "Ahmed Tolba",
                "rank": 34,
                "last_rank": 50,
                "rank_sort": 34,
                "total": 2276,
                "entry": 2089691,
                "entry_name": "Tolba Risk"
            },
            {
                "id": 246315,
                "event_total": 58,
                "player_name": "David Cokayne",
                "rank": 35,
                "last_rank": 24,
                "rank_sort": 35,
                "total": 2275,
                "entry": 47975,
                "entry_name": "DC Team"
            },
            {
                "id": 10591538,
                "event_total": 80,
                "player_name": "Panos Anastopoulos",
                "rank": 36,
                "last_rank": 58,
                "rank_sort": 36,
                "total": 2274,
                "entry": 1891553,
                "entry_name": "Koupatoi-PCLW"
            },
            {
                "id": 6444875,
                "event_total": 58,
                "player_name": "Andrew Grandin",
                "rank": 37,
                "last_rank": 27,
                "rank_sort": 37,
                "total": 2273,
                "entry": 1194464,
                "entry_name": "Cheugypool"
            },
            {
                "id": 4914102,
                "event_total": 58,
                "player_name": "Amund Moldeklev",
                "rank": 38,
                "last_rank": 29,
                "rank_sort": 38,
                "total": 2272,
                "entry": 922596,
                "entry_name": "ItsKrulToBeHartL\u00f6ssl"
            },
            {
                "id": 2677933,
                "event_total": 64,
                "player_name": "Marius Ryeng",
                "rank": 39,
                "last_rank": 34,
                "rank_sort": 39,
                "total": 2272,
                "entry": 505048,
                "entry_name": "Sandaker FC"
            },
            {
                "id": 1313211,
                "event_total": 79,
                "player_name": "Sebastian Jonsson",
                "rank": 40,
                "last_rank": 63,
                "rank_sort": 40,
                "total": 2271,
                "entry": 247565,
                "entry_name": "TBC"
            },
            {
                "id": 1406504,
                "event_total": 61,
                "player_name": "Kim-Tonny Henriksen",
                "rank": 41,
                "last_rank": 33,
                "rank_sort": 41,
                "total": 2271,
                "entry": 265853,
                "entry_name": "Tonny's Toney Tunes"
            },
            {
                "id": 6287625,
                "event_total": 63,
                "player_name": "Drew Bone",
                "rank": 42,
                "last_rank": 36,
                "rank_sort": 42,
                "total": 2270,
                "entry": 1166792,
                "entry_name": "Guns n Moses"
            },
            {
                "id": 3486316,
                "event_total": 54,
                "player_name": "Bibin Vinduwa",
                "rank": 43,
                "last_rank": 26,
                "rank_sort": 43,
                "total": 2269,
                "entry": 656312,
                "entry_name": "Baka Mitai FC"
            },
            {
                "id": 2644250,
                "event_total": 78,
                "player_name": "Per Lauvvang",
                "rank": 44,
                "last_rank": 67,
                "rank_sort": 44,
                "total": 2269,
                "entry": 498694,
                "entry_name": "Team Volo"
            },
            {
                "id": 3378207,
                "event_total": 69,
                "player_name": "Jaren Ong",
                "rank": 45,
                "last_rank": 47,
                "rank_sort": 45,
                "total": 2269,
                "entry": 638409,
                "entry_name": "Little Dancer"
            },
            {
                "id": 17886,
                "event_total": 61,
                "player_name": "Alexander Rosen",
                "rank": 46,
                "last_rank": 35,
                "rank_sort": 46,
                "total": 2268,
                "entry": 3956,
                "entry_name": "Smack my Klich Up"
            },
            {
                "id": 41645506,
                "event_total": 88,
                "player_name": "Aatos Palonen",
                "rank": 47,
                "last_rank": 99,
                "rank_sort": 47,
                "total": 2268,
                "entry": 5949462,
                "entry_name": "LeKi-11"
            },
            {
                "id": 27989,
                "event_total": 75,
                "player_name": "Milko Yovchev",
                "rank": 48,
                "last_rank": 62,
                "rank_sort": 48,
                "total": 2268,
                "entry": 5995,
                "entry_name": "Lost Boyz"
            },
            {
                "id": 15345241,
                "event_total": 77,
                "player_name": "Tharoun Sharma",
                "rank": 49,
                "last_rank": 68,
                "rank_sort": 49,
                "total": 2268,
                "entry": 2626483,
                "entry_name": "Victorian FC"
            },
            {
                "id": 9028790,
                "event_total": 83,
                "player_name": "Liam Cosbey",
                "rank": 50,
                "last_rank": 94,
                "rank_sort": 50,
                "total": 2267,
                "entry": 1636143,
                "entry_name": "Klopptimus Prime"
            }
        ]
    }
}