{
    "new_entries": {
        "has_next": false,
        "page": 1,
        "results": []
    },
    "last_updated_data": "2022-10-24T22:01:07Z",
    "league": {
        "id": 314,
        "name": "Overall",
        "created": "2022-07-05T09:52:00.763442Z",
        "closed": false,
        "max_entries": null,
        "league_type": "s",
        "scoring": "c",
        "admin_entry": null,
        "start_event": 1,
        "code_privacy": "p",
        "has_cup": true,
        "cup_league": null,
        "rank": null,
        "lgCount": 9059100
    },
    "standings": {
        "has_next": true,
        "page": 1,
        "results": [
            {
                "id": 35966093,
                "event_total": 59,
                "player_name": "Sanad 23{LY}\ud83c\uddf1\ud83c\uddfe\u2022",
                "rank": 1,
                "last_rank": 1,
                "rank_sort": 1,
                "total": 883,
                "entry": 5409263,
                "entry_name": "{2sANAd3}"
            },
            {
                "id": 15541014,
                "event_total": 70,
                "player_name": "Yaqoob 17",
                "rank": 2,
                "last_rank": 6,
                "rank_sort": 2,
                "total": 882,
                "entry": 2698631,
                "entry_name": "yaqoob"
            },
            {
                "id": 16659600,
                "event_total": 87,
                "player_name": "Jamie Pinder",
                "rank": 3,
                "last_rank": 85,
                "rank_sort": 3,
                "total": 878,
                "entry": 2870571,
                "entry_name": "FranksRelegatedBlues"
            },
            {
                "id": 13440629,
                "event_total": 62,
                "player_name": "Aziz Gouia",
                "rank": 4,
                "last_rank": 4,
                "rank_sort": 4,
                "total": 876,
                "entry": 2428483,
                "entry_name": "Mafama Ken Lkhir FC"
            },
            {
                "id": 14827925,
                "event_total": 62,
                "player_name": "Kenny Cowgill",
                "rank": 5,
                "last_rank": 5,
                "rank_sort": 5,
                "total": 875,
                "entry": 2614772,
                "entry_name": "Singapool"
            },
            {
                "id": 31161127,
                "event_total": 68,
                "player_name": "nasrallah taym",
                "rank": 6,
                "last_rank": 14,
                "rank_sort": 6,
                "total": 875,
                "entry": 4854916,
                "entry_name": "Taym24"
            },
            {
                "id": 45289625,
                "event_total": 62,
                "player_name": "Peter Lougheed",
                "rank": 7,
                "last_rank": 7,
                "rank_sort": 7,
                "total": 873,
                "entry": 6373152,
                "entry_name": "Come on the Pegs"
            },
            {
                "id": 1979330,
                "event_total": 78,
                "player_name": "Oscar McGowan",
                "rank": 8,
                "last_rank": 52,
                "rank_sort": 8,
                "total": 873,
                "entry": 386896,
                "entry_name": "HaalandShake"
            },
            {
                "id": 38967663,
                "event_total": 100,
                "player_name": "Christian Halvor Thomsen",
                "rank": 9,
                "last_rank": 534,
                "rank_sort": 9,
                "total": 872,
                "entry": 5672785,
                "entry_name": "Thomsen"
            },
            {
                "id": 17544143,
                "event_total": 87,
                "player_name": "Rashad Ahmed",
                "rank": 10,
                "last_rank": 113,
                "rank_sort": 10,
                "total": 872,
                "entry": 3009525,
                "entry_name": "karma72"
            },
            {
                "id": 5319206,
                "event_total": 62,
                "player_name": "Roy Bultheel",
                "rank": 11,
                "last_rank": 12,
                "rank_sort": 11,
                "total": 870,
                "entry": 1014505,
                "entry_name": "Noab25"
            },
            {
                "id": 7626993,
                "event_total": 58,
                "player_name": "Ross Lewis",
                "rank": 12,
                "last_rank": 8,
                "rank_sort": 12,
                "total": 868,
                "entry": 1434027,
                "entry_name": "Roscoe"
            },
            {
                "id": 56677502,
                "event_total": 90,
                "player_name": "Luis Ferreira",
                "rank": 13,
                "last_rank": 436,
                "rank_sort": 13,
                "total": 868,
                "entry": 7737730,
                "entry_name": "Boi George"
            },
            {
                "id": 1131491,
                "event_total": 65,
                "player_name": "Nnaedozie Ezebo",
                "rank": 14,
                "last_rank": 20,
                "rank_sort": 14,
                "total": 867,
                "entry": 219629,
                "entry_name": "Jasper FC"
            },
            {
                "id": 1881214,
                "event_total": 89,
                "player_name": "Jonatan Larsson",
                "rank": 15,
                "last_rank": 436,
                "rank_sort": 15,
                "total": 867,
                "entry": 368280,
                "entry_name": "Tomiyasuiiii"
            },
            {
                "id": 17958438,
                "event_total": 49,
                "player_name": "Musab Yassin",
                "rank": 16,
                "last_rank": 2,
                "rank_sort": 16,
                "total": 867,
                "entry": 3077708,
                "entry_name": "SudanAirWays"
            },
            {
                "id": 42496166,
                "event_total": 66,
                "player_name": "Kristian Finnland",
                "rank": 16,
                "last_rank": 25,
                "rank_sort": 17,
                "total": 867,
                "entry": 6033938,
                "entry_name": "mist fc"
            },
            {
                "id": 38365150,
                "event_total": 66,
                "player_name": "Tom O\u2019Sullivan",
                "rank": 18,
                "last_rank": 28,
                "rank_sort": 18,
                "total": 866,
                "entry": 5612551,
                "entry_name": "Dark Mata"
            },
            {
                "id": 7496852,
                "event_total": 74,
                "player_name": "\u041f\u0435\u0442\u044a\u0440 \u041c\u0430\u0442\u0430\u043d\u0441\u043a\u0438",
                "rank": 19,
                "last_rank": 76,
                "rank_sort": 19,
                "total": 866,
                "entry": 1411317,
                "entry_name": "1912"
            },
            {
                "id": 20640189,
                "event_total": 69,
                "player_name": "neil turley",
                "rank": 19,
                "last_rank": 38,
                "rank_sort": 20,
                "total": 866,
                "entry": 3469155,
                "entry_name": "Team Turls"
            },
            {
                "id": 18169860,
                "event_total": 76,
                "player_name": "nyora Felix",
                "rank": 21,
                "last_rank": 106,
                "rank_sort": 21,
                "total": 866,
                "entry": 3110747,
                "entry_name": "Unbeatable Hotspur"
            },
            {
                "id": 5295010,
                "event_total": 90,
                "player_name": "Liam Pritchard",
                "rank": 22,
                "last_rank": 612,
                "rank_sort": 22,
                "total": 865,
                "entry": 1010095,
                "entry_name": "Breve Stuce"
            },
            {
                "id": 4066788,
                "event_total": 86,
                "player_name": "Freddie Goode",
                "rank": 23,
                "last_rank": 377,
                "rank_sort": 23,
                "total": 865,
                "entry": 782797,
                "entry_name": "Change Name"
            },
            {
                "id": 28274169,
                "event_total": 65,
                "player_name": "Brooklyn Heath",
                "rank": 24,
                "last_rank": 29,
                "rank_sort": 24,
                "total": 865,
                "entry": 4491211,
                "entry_name": "Who8alldepays?"
            },
            {
                "id": 5205291,
                "event_total": 79,
                "player_name": "Tommy \u00d8stlund",
                "rank": 25,
                "last_rank": 191,
                "rank_sort": 25,
                "total": 864,
                "entry": 993694,
                "entry_name": "Alisson Wonderland"
            },
            {
                "id": 53908429,
                "event_total": 46,
                "player_name": "Johan Verstraelen",
                "rank": 26,
                "last_rank": 3,
                "rank_sort": 26,
                "total": 864,
                "entry": 7406415,
                "entry_name": "Bantasy FC"
            },
            {
                "id": 21466080,
                "event_total": 62,
                "player_name": "Mickey Mc Crink",
                "rank": 27,
                "last_rank": 23,
                "rank_sort": 27,
                "total": 863,
                "entry": 3589482,
                "entry_name": "JESUS RICE"
            },
            {
                "id": 843234,
                "event_total": 89,
                "player_name": "Duncan Boddy",
                "rank": 28,
                "last_rank": 715,
                "rank_sort": 28,
                "total": 863,
                "entry": 161367,
                "entry_name": "DunCaster Rovers"
            },
            {
                "id": 50536021,
                "event_total": 88,
                "player_name": "Joshua Cheng",
                "rank": 28,
                "last_rank": 626,
                "rank_sort": 29,
                "total": 863,
                "entry": 7010417,
                "entry_name": "Mr Brightside"
            },
            {
                "id": 45438676,
                "event_total": 67,
                "player_name": "Mohamed Chatir",
                "rank": 30,
                "last_rank": 47,
                "rank_sort": 30,
                "total": 862,
                "entry": 6391512,
                "entry_name": "wake up"
            },
            {
                "id": 1102077,
                "event_total": 79,
                "player_name": "Michael Bertl",
                "rank": 31,
                "last_rank": 237,
                "rank_sort": 31,
                "total": 862,
                "entry": 213583,
                "entry_name": "Anfields Stars"
            },
            {
                "id": 5720820,
                "event_total": 68,
                "player_name": "Youssef Frichi",
                "rank": 32,
                "last_rank": 66,
                "rank_sort": 32,
                "total": 861,
                "entry": 1086858,
                "entry_name": "you\u00dfef"
            },
            {
                "id": 1298692,
                "event_total": 62,
                "player_name": "Lucas Roland",
                "rank": 33,
                "last_rank": 16,
                "rank_sort": 33,
                "total": 861,
                "entry": 253552,
                "entry_name": "Rolando\ufffd"
            },
            {
                "id": 2902107,
                "event_total": 64,
                "player_name": "lior bason",
                "rank": 33,
                "last_rank": 40,
                "rank_sort": 34,
                "total": 861,
                "entry": 565111,
                "entry_name": "micnic pizza"
            },
            {
                "id": 14226961,
                "event_total": 72,
                "player_name": "ahmed mohamed",
                "rank": 33,
                "last_rank": 113,
                "rank_sort": 35,
                "total": 861,
                "entry": 2557662,
                "entry_name": "Bmw"
            },
            {
                "id": 47559596,
                "event_total": 63,
                "player_name": "Adam Lawrence",
                "rank": 36,
                "last_rank": 37,
                "rank_sort": 36,
                "total": 860,
                "entry": 6658168,
                "entry_name": "Scuttlers"
            },
            {
                "id": 28411180,
                "event_total": 62,
                "player_name": "Remy Moran",
                "rank": 37,
                "last_rank": 35,
                "rank_sort": 37,
                "total": 860,
                "entry": 4502270,
                "entry_name": "Remys Rovers"
            },
            {
                "id": 22710608,
                "event_total": 61,
                "player_name": "Simon England",
                "rank": 38,
                "last_rank": 34,
                "rank_sort": 38,
                "total": 859,
                "entry": 3774753,
                "entry_name": "Jessie's Giants"
            },
            {
                "id": 25243597,
                "event_total": 75,
                "player_name": "Jack Halliday",
                "rank": 39,
                "last_rank": 206,
                "rank_sort": 39,
                "total": 859,
                "entry": 4137530,
                "entry_name": "Struijk of Genius"
            },
            {
                "id": 25031788,
                "event_total": 53,
                "player_name": "Ewan McDuff",
                "rank": 40,
                "last_rank": 9,
                "rank_sort": 40,
                "total": 859,
                "entry": 4107523,
                "entry_name": "Who you Gana Call"
            },
            {
                "id": 5864096,
                "event_total": 53,
                "player_name": "Jim Hast",
                "rank": 40,
                "last_rank": 9,
                "rank_sort": 41,
                "total": 859,
                "entry": 1112879,
                "entry_name": "Hast a la vista"
            },
            {
                "id": 2934965,
                "event_total": 68,
                "player_name": "Elin H\u00e5ll\u00e9n",
                "rank": 42,
                "last_rank": 88,
                "rank_sort": 42,
                "total": 859,
                "entry": 571352,
                "entry_name": "Pallen"
            },
            {
                "id": 2475109,
                "event_total": 63,
                "player_name": "zul kifli",
                "rank": 43,
                "last_rank": 46,
                "rank_sort": 43,
                "total": 859,
                "entry": 483926,
                "entry_name": "cheroy23"
            },
            {
                "id": 33023627,
                "event_total": 73,
                "player_name": "Nikola Paukovi\u0107",
                "rank": 43,
                "last_rank": 173,
                "rank_sort": 44,
                "total": 859,
                "entry": 5096598,
                "entry_name": "FC Klan"
            },
            {
                "id": 11024570,
                "event_total": 71,
                "player_name": "Idris Omar",
                "rank": 43,
                "last_rank": 135,
                "rank_sort": 45,
                "total": 859,
                "entry": 2026487,
                "entry_name": "\u0627\u0644\u0639\u0645\u0627\u0631\u064a \u270c\ufe0f\u2764\ufe0f"
            },
            {
                "id": 3336075,
                "event_total": 87,
                "player_name": "Ricky Chu",
                "rank": 43,
                "last_rank": 566,
                "rank_sort": 46,
                "total": 859,
                "entry": 645120,
                "entry_name": "u mums bakery"
            },
            {
                "id": 804377,
                "event_total": 66,
                "player_name": "Marko Kuru\u010dki",
                "rank": 47,
                "last_rank": 72,
                "rank_sort": 47,
                "total": 859,
                "entry": 153505,
                "entry_name": "OnemanArmy1312"
            },
            {
                "id": 24872509,
                "event_total": 65,
                "player_name": "Joseph Adikwu",
                "rank": 48,
                "last_rank": 65,
                "rank_sort": 48,
                "total": 858,
                "entry": 4084684,
                "entry_name": "Accurate fc"
            },
            {
                "id": 12554291,
                "event_total": 57,
                "player_name": "James Caulfield",
                "rank": 49,
                "last_rank": 24,
                "rank_sort": 49,
                "total": 858,
                "entry": 2277864,
                "entry_name": "Raheem supreme 11"
            },
            {
                "id": 25189897,
                "event_total": 73,
                "player_name": "Mads Hjortsh\u00f8j",
                "rank": 49,
                "last_rank": 183,
                "rank_sort": 50,
                "total": 858,
                "entry": 4129744,
                "entry_name": "King Kai"
            }
        ]
    }
}